<?xml version="1.0" encoding="UTF-8"?>
<glyph name="g" format="1">
  <advance width="820"/>
  <unicode hex="0067"/>
  <outline>
    <contour>
      <point x="30" y="1160" type="line"/>
      <point x="750" y="1160" type="line"/>
      <point x="780" y="1130" type="line"/>
      <point x="750" y="1100" type="line"/>
      <point x="30" y="1100" type="line"/>
      <point x="0" y="1130" type="line"/>
    </contour>
    <contour>
      <point x="30" y="1070" type="line"/>
      <point x="750" y="1070" type="line"/>
      <point x="780" y="1040" type="line"/>
      <point x="750" y="1010" type="line"/>
      <point x="150" y="1010" type="line"/>
      <point x="150" y="410" type="line"/>
      <point x="630" y="410" type="line"/>
      <point x="630" y="620" type="line"/>
      <point x="360" y="620" type="line"/>
      <point x="330" y="650" type="line"/>
      <point x="360" y="680" type="line"/>
      <point x="690" y="680" type="line"/>
      <point x="690" y="350" type="line"/>
      <point x="90" y="350" type="line"/>
      <point x="90" y="1010" type="line"/>
      <point x="60" y="1010" type="line"/>
      <point x="60" y="320" type="line"/>
      <point x="720" y="320" type="line"/>
      <point x="720" y="710" type="line"/>
      <point x="360" y="710" type="line"/>
      <point x="330" y="740" type="line"/>
      <point x="360" y="770" type="line"/>
      <point x="750" y="770" type="line"/>
      <point x="780" y="740" type="line"/>
      <point x="780" y="290" type="line"/>
      <point x="750" y="260" type="line"/>
      <point x="30" y="260" type="line"/>
      <point x="0" y="290" type="line"/>
      <point x="0" y="1040" type="line"/>
    </contour>
  </outline>
  <lib>
    <dict>
      <key>com.fontlab.hintData</key>
      <dict>
	<key>hhints</key>
	<array>
	  <dict>
	    <key>position</key>	    <integer>260</integer>
	    <key>width</key>	    <integer>60</integer>
	  </dict>
	  <dict>
	    <key>position</key>	    <integer>350</integer>
	    <key>width</key>	    <integer>60</integer>
	  </dict>
	  <dict>
	    <key>position</key>	    <integer>620</integer>
	    <key>width</key>	    <integer>60</integer>
	  </dict>
	  <dict>
	    <key>position</key>	    <integer>710</integer>
	    <key>width</key>	    <integer>60</integer>
	  </dict>
	  <dict>
	    <key>position</key>	    <integer>1010</integer>
	    <key>width</key>	    <integer>60</integer>
	  </dict>
	  <dict>
	    <key>position</key>	    <integer>1100</integer>
	    <key>width</key>	    <integer>60</integer>
	  </dict>
	</array>
	<key>vhints</key>
	<array>
	  <dict>
	    <key>position</key>
	    <integer>0</integer>
	    <key>width</key>
	    <integer>60</integer>
	  </dict>
	  <dict>
	    <key>position</key>
	    <integer>90</integer>
	    <key>width</key>
	    <integer>60</integer>
	  </dict>
	  <dict>
	    <key>position</key>
	    <integer>630</integer>
	    <key>width</key>
	    <integer>60</integer>
	  </dict>
	  <dict>
	    <key>position</key>
	    <integer>720</integer>
	    <key>width</key>
	    <integer>60</integer>
	  </dict>
	</array>
      </dict>
    </dict>
  </lib>
</glyph>
