<?xml version="1.0" encoding="UTF-8"?>
<glyph name="I" format="1">
  <advance width="230"/>
  <unicode hex="0049"/>
  <outline>
    <contour>
      <point x="70" y="1160" type="line"/>
      <point x="100" y="1130" type="line"/>
      <point x="100" y="290" type="line"/>
      <point x="70" y="260" type="line"/>
      <point x="40" y="290" type="line"/>
      <point x="40" y="1130" type="line"/>
    </contour>
    <contour>
      <point x="160" y="1160" type="line"/>
      <point x="190" y="1130" type="line"/>
      <point x="190" y="290" type="line"/>
      <point x="160" y="260" type="line"/>
      <point x="130" y="290" type="line"/>
      <point x="130" y="1130" type="line"/>
    </contour>
  </outline>
  <lib>
    <dict>
      <key>com.fontlab.hintData</key>
      <dict>
	<key>hhints</key>
	<array>
	  <dict>
	    <key>position</key>	    <integer>260</integer>
	    <key>width</key>	    <integer>21</integer>
	  </dict>
	  <dict>
	    <key>position</key>	    <integer>1140</integer>
	    <key>width</key>	    <integer>20</integer>
	  </dict>
	</array>
	<key>vhints</key>
	<array>
	  <dict>
	    <key>position</key>
	    <integer>40</integer>
	    <key>width</key>
	    <integer>60</integer>
	  </dict>
	  <dict>
	    <key>position</key>
	    <integer>130</integer>
	    <key>width</key>
	    <integer>60</integer>
	  </dict>
	</array>
      </dict>
    </dict>
  </lib>
</glyph>
