<?xml version="1.0" encoding="UTF-8"?>
<glyph name="x" format="1">
  <advance width="1017"/>
  <unicode hex="0078"/>
  <outline>
    <contour>
      <point x="73.5625" y="1160" type="line"/>
      <point x="116.125" y="1160" type="line"/>
      <point x="508.562" y="767.562" type="line"/>
      <point x="901" y="1160" type="line"/>
      <point x="943.375" y="1160" type="line"/>
      <point x="943.375" y="1117.62" type="line"/>
      <point x="52.375" y="226.625" type="line"/>
      <point x="10" y="226.625" type="line"/>
      <point x="10" y="269.188" type="line"/>
      <point x="402.438" y="661.625" type="line"/>
      <point x="10" y="1054.06" type="line"/>
      <point x="10" y="1096.44" type="line"/>
      <point x="52.375" y="1096.44" type="line"/>
      <point x="444.812" y="704" type="line"/>
      <point x="466" y="725.188" type="line"/>
      <point x="73.5625" y="1117.62" type="line"/>
    </contour>
    <contour>
      <point x="964.625" y="1096.44" type="line"/>
      <point x="1007" y="1096.44" type="line"/>
      <point x="1007" y="1053.88" type="line"/>
      <point x="614.562" y="661.438" type="line"/>
      <point x="1007" y="269" type="line"/>
      <point x="1007" y="226.625" type="line"/>
      <point x="964.625" y="226.625" type="line"/>
      <point x="572.188" y="619.062" type="line"/>
      <point x="551" y="597.875" type="line"/>
      <point x="943.438" y="205.438" type="line"/>
      <point x="943.438" y="163.062" type="line"/>
      <point x="900.875" y="163.062" type="line"/>
      <point x="508.438" y="555.5" type="line"/>
      <point x="116" y="163.062" type="line"/>
      <point x="73.625" y="163.062" type="line"/>
      <point x="73.625" y="205.438" type="line"/>
    </contour>
  </outline>
  <lib>
    <dict>
      <key>com.fontlab.hintData</key>
      <dict>
	<key>hhints</key>
	<array>
	  <dict>
	    <key>position</key>	    <integer>1140</integer>
	    <key>width</key>	    <integer>20</integer>
	  </dict>
	</array>
      </dict>
    </dict>
  </lib>
</glyph>
